…
At this point, the code

filters out the years prior to 1901 and the misbegotten Federal League.

and then creates a nested data table, starting with the group_by() year and league (lgID)

# select a sub-set of teams from 1901 [the establishment of the American League] forward to most recent year
Teams_lgyr <- Teams %>%
  filter(yearID > 1900, lgID != "FL") %>%
  group_by(yearID, lgID) %>%
  nest()

Teams_lgyr

## # A tibble: 236 x 3
##    yearID lgID  data             
##     <dbl> <chr> <list>           
##  1   1901 AL    <tibble [8 x 46]>
##  2   1901 NL    <tibble [8 x 46]>
##  3   1902 AL    <tibble [8 x 46]>
##  4   1902 NL    <tibble [8 x 46]>
##  5   1903 AL    <tibble [8 x 46]>
##  6   1903 NL    <tibble [8 x 46]>
##  7   1904 AL    <tibble [8 x 46]>
##  8   1904 NL    <tibble [8 x 46]>
##  9   1905 AL    <tibble [8 x 46]>
## 10   1905 NL    <tibble [8 x 46]>
## # ... with 226 more rows
…
leagueRAPG_fun <- function(df) {
  sum(data = df$RA) / (sum(data = df$W) + sum(data = df$L))
  }

# simple `map` version
league_year_RPG <- map(Teams_lgyr$data, leagueRPG_fun)

# embed as new columns in nested data object
Teams_lgyr <- Teams_lgyr %>%
  mutate(lgRPG = map_dbl(Teams_lgyr$data, leagueRPG_fun),
         lgRAPG = map_dbl(Teams_lgyr$data, leagueRAPG_fun))

Teams_lgyr

## # A tibble: 236 x 5
##    yearID lgID  data              lgRPG lgRAPG
##     <dbl> <chr> <list>            <dbl>  <dbl>
##  1   1901 AL    <tibble [8 x 46]>  5.43   5.43
##  2   1901 NL    <tibble [8 x 46]>  4.69   4.69
##  3   1902 AL    <tibble [8 x 46]>  4.97   4.97
##  4   1902 NL    <tibble [8 x 46]>  4.09   4.09
##  5   1903 AL    <tibble [8 x 46]>  4.15   4.15
##  6   1903 NL    <tibble [8 x 46]>  4.85   4.85
##  7   1904 AL    <tibble [8 x 46]>  3.65   3.65
##  8   1904 NL    <tibble [8 x 46]>  3.98   3.98
##  9   1905 AL    <tibble [8 x 46]>  3.75   3.75
## 10   1905 NL    <tibble [8 x 46]>  4.16   4.16
## # ... with 226 more rows
…
Teams_lgyr <- Teams_lgyr %>%
  mutate(lgR = map_dbl(Teams_lgyr$data, leagueR_fun),
         lgRA = map_dbl(Teams_lgyr$data, leagueRA_fun),
         lgG = map_dbl(Teams_lgyr$data, leagueG_fun))

Teams_lgyr <- Teams_lgyr %>%
  mutate(lgRPG = (lgR / lgG),
         lgRAPG = (lgRA / lgG))

Teams_lgyr

## # A tibble: 236 x 8
##    yearID lgID  data              lgRPG lgRAPG   lgR  lgRA   lgG
##     <dbl> <chr> <list>            <dbl>  <dbl> <dbl> <dbl> <dbl>
##  1   1901 AL    <tibble [8 x 46]>  5.43   5.43  5873  5873  1082
##  2   1901 NL    <tibble [8 x 46]>  4.69   4.69  5194  5194  1108
##  3   1902 AL    <tibble [8 x 46]>  4.97   4.97  5407  5407  1088
##  4   1902 NL    <tibble [8 x 46]>  4.09   4.09  4494  4494  1098
##  5   1903 AL    <tibble [8 x 46]>  4.15   4.15  4543  4543  1096
##  6   1903 NL    <tibble [8 x 46]>  4.85   4.85  5349  5349  1102
##  7   1904 AL    <tibble [8 x 46]>  3.65   3.65  4433  4433  1216
##  8   1904 NL    <tibble [8 x 46]>  3.98   3.98  4872  4872  1224
##  9   1905 AL    <tibble [8 x 46]>  3.75   3.75  4547  4547  1212
## 10   1905 NL    <tibble [8 x 46]>  4.16   4.16  5092  5092  1224
## # ... with 226 more rows
…
Notes:

rounding of variables after all the calculations, simply to make the tables as viewed more legible.

renaming of variables to correspond with shiny app names.

LG_RPG <- Teams_lgyr %>%
  mutate(lgRPG = round(lgRPG, 2),
         lgRAPG = round(lgRAPG, 2)) %>%
  select(yearID, lgID, R = lgR, RA = lgRA, G = lgG, 
         leagueRPG = lgRPG, leagueRAPG = lgRAPG)

LG_RPG

## # A tibble: 236 x 7
##    yearID lgID      R    RA     G leagueRPG leagueRAPG
##     <dbl> <chr> <dbl> <dbl> <dbl>     <dbl>      <dbl>
##  1   1901 AL     5873  5873  1082      5.43       5.43
##  2   1901 NL     5194  5194  1108      4.69       4.69
##  3   1902 AL     5407  5407  1088      4.97       4.97
##  4   1902 NL     4494  4494  1098      4.09       4.09
##  5   1903 AL     4543  4543  1096      4.15       4.15
##  6   1903 NL     5349  5349  1102      4.85       4.85
##  7   1904 AL     4433  4433  1216      3.65       3.65
##  8   1904 NL     4872  4872  1224      3.98       3.98
##  9   1905 AL     4547  4547  1212      3.75       3.75
## 10   1905 NL     5092  5092  1224      4.16       4.16
## # ... with 226 more rows
write_csv(LG_RPG, "LG_RPG.csv")
write_feather(LG_RPG, "LG_RPG.feather")

c. Repeat for MLB total

This only differs from the league summaries in the level of nesting; instead of grouping by year and league, it’s only year (yearID).

Teams_lgyr <- Teams_lgyr %>%
  unnest() %>%
  group_by(yearID) %>%
  nest()

Teams_lgyr

## # A tibble: 118 x 2
##    yearID data              
##     <dbl> <list>            
##  1   1901 <tibble [16 x 52]>
##  2   1902 <tibble [16 x 52]>
##  3   1903 <tibble [16 x 52]>
##  4   1904 <tibble [16 x 52]>
##  5   1905 <tibble [16 x 52]>
##  6   1906 <tibble [16 x 52]>
##  7   1907 <tibble [16 x 52]>
##  8   1908 <tibble [16 x 52]>
##  9   1909 <tibble [16 x 52]>
## 10   1910 <tibble [16 x 52]>
## # ... with 108 more rows

Teams_lgyr <- Teams_lgyr %>%
  mutate(mlbR = map_dbl(Teams_lgyr$data, leagueR_fun),
         mlbRA = map_dbl(Teams_lgyr$data, leagueRA_fun),
         mlbG = map_dbl(Teams_lgyr$data, leagueG_fun),
         mlbRPG = (mlbR / mlbG),
         mlbRAPG = (mlbRA / mlbG))

Teams_lgyr

## # A tibble: 118 x 7
##    yearID data                mlbR mlbRA  mlbG mlbRPG mlbRAPG
##     <dbl> <list>             <dbl> <dbl> <dbl>  <dbl>   <dbl>
##  1   1901 <tibble [16 x 52]> 11067 11067  2190   5.05    5.05
##  2   1902 <tibble [16 x 52]>  9901  9901  2186   4.53    4.53
##  3   1903 <tibble [16 x 52]>  9892  9892  2198   4.50    4.50
##  4   1904 <tibble [16 x 52]>  9305  9305  2440   3.81    3.81
##  5   1905 <tibble [16 x 52]>  9639  9639  2436   3.96    3.96
##  6   1906 <tibble [16 x 52]>  8881  8878  2416   3.68    3.67
##  7   1907 <tibble [16 x 52]>  8703  8703  2406   3.62    3.62
##  8   1908 <tibble [16 x 52]>  8422  8422  2456   3.43    3.43
##  9   1909 <tibble [16 x 52]>  8810  8810  2436   3.62    3.62
## 10   1910 <tibble [16 x 52]>  9584  9584  2446   3.92    3.92
## # ... with 108 more rows
…
Teams_append

## # A tibble: 2,496 x 67
##    yearID  mlbR mlbRA  mlbG mlbRPG mlbRAPG lgID  lgRPG lgRAPG   lgR  lgRA
##     <dbl> <dbl> <dbl> <dbl>  <dbl>   <dbl> <chr> <dbl>  <dbl> <dbl> <dbl>
##  1   1901 11067 11067  2190   5.05    5.05 AL     5.43   5.43  5873  5873
##  2   1901 11067 11067  2190   5.05    5.05 AL     5.43   5.43  5873  5873
##  3   1901 11067 11067  2190   5.05    5.05 AL     5.43   5.43  5873  5873
##  4   1901 11067 11067  2190   5.05    5.05 AL     5.43   5.43  5873  5873
##  5   1901 11067 11067  2190   5.05    5.05 AL     5.43   5.43  5873  5873
##  6   1901 11067 11067  2190   5.05    5.05 AL     5.43   5.43  5873  5873
##  7   1901 11067 11067  2190   5.05    5.05 AL     5.43   5.43  5873  5873
##  8   1901 11067 11067  2190   5.05    5.05 AL     5.43   5.43  5873  5873
##  9   1901 11067 11067  2190   5.05    5.05 NL     4.69   4.69  5194  5194
## 10   1901 11067 11067  2190   5.05    5.05 NL     4.69   4.69  5194  5194
## # ... with 2,486 more rows, and 56 more variables: lgG <dbl>,
## #   teamID <chr>, franchID <chr>, divID <chr>, Rank <dbl>, G <dbl>,
## #   Ghome <dbl>, W <dbl>, L <dbl>, DivWin <chr>, WCWin <chr>, LgWin <chr>,
## #   WSWin <chr>, R <dbl>, AB <dbl>, H <dbl>, `2B` <dbl>, `3B` <dbl>,
## #   HR <dbl>, BB <dbl>, SO <dbl>, SB <dbl>, CS <dbl>, HBP <dbl>, SF <chr>,
## #   RA <dbl>, ER <dbl>, ERA <dbl>, CG <dbl>, SHO <dbl>, SV <dbl>,
## #   IPouts <dbl>, HA <dbl>, HRA <dbl>, BBA <dbl>, SOA <dbl>, E <dbl>,
## #   DP <dbl>, FP <dbl>, name <chr>, park <chr>, attendance <dbl>,
## #   BPF <dbl>, PPF <dbl>, teamIDBR <chr>, teamIDlahman45 <chr>,
…
Teams_merge

## # A tibble: 2,496 x 16
##    yearID lgID  franchID teamID name      W     L WLpct   R.x  RA.x teamRPG
##     <dbl> <chr> <chr>    <chr>  <chr> <dbl> <dbl> <dbl> <dbl> <dbl>   <dbl>
##  1   1901 AL    NYY      BLA    Balt~    68    65 0.511   760   750    5.71
##  2   1901 AL    BOS      BOS    Bost~    79    57 0.581   759   608    5.58
##  3   1901 AL    CHW      CHA    Chic~    83    53 0.61    819   631    6.02
##  4   1901 AL    CLE      CLE    Clev~    54    82 0.397   666   831    4.9 
##  5   1901 AL    DET      DET    Detr~    74    61 0.548   741   694    5.49
##  6   1901 AL    BAL      MLA    Milw~    48    89 0.35    641   828    4.68
##  7   1901 AL    OAK      PHA    Phil~    74    62 0.544   805   760    5.92
##  8   1901 AL    MIN      WS1    Wash~    61    72 0.459   682   771    5.13
##  9   1901 NL    LAD      BRO    Broo~    79    57 0.581   744   600    5.47
## 10   1901 NL    ATL      BSN    Bost~    69    69 0.5     531   556    3.85
## # ... with 2,486 more rows, and 5 more variables: leagueRPG <dbl>,
## #   R_index <dbl>, teamRAPG <dbl>, leagueRAPG <dbl>, RA_index <dbl>
…
